Attack1: The total time taken to run is: 7652.8759644031525 seconds
Attack2: The total time taken to run is: 5463.583878517151 seconds
Attack3: The total time taken to run is: 7468.879500627518 seconds
Attack4: The total time taken to run is: 8647.04608798027 seconds
Attack5: The total time taken to run is: 6870.431396961212 seconds
